[{"id":1,
  "name":"Alex",
  "age":21,
  "exp": "jun",
  "gender": "male"},
  {"id": 2,
    "name":"Al",
    "age":22,
    "exp": "n",
    "gender": "ma"},
  {"id":3,
    "name":"A",
    "age":23,
    "exp": "u",
    "gender": "male"}]

